<?xml version="1.0" encoding="UTF-8" standalone="no"?>
<!-- Created with Inkscape (http://www.inkscape.org/) -->

<svg
   xmlns:dc="http://purl.org/dc/elements/1.1/"
   xmlns:cc="http://creativecommons.org/ns#"
   xmlns:rdf="http://www.w3.org/1999/02/22-rdf-syntax-ns#"
   xmlns:svg="http://www.w3.org/2000/svg"
   xmlns="http://www.w3.org/2000/svg"
   xmlns:sodipodi="http://sodipodi.sourceforge.net/DTD/sodipodi-0.dtd"
   xmlns:inkscape="http://www.inkscape.org/namespaces/inkscape"
   width="404.18188mm"
   height="284.55841mm"
   viewBox="0 0 404.18189 284.55841"
   version="1.1"
   id="svg8"
   inkscape:version="0.92.3 (2405546, 2018-03-11)"
   sodipodi:docname="basicProposalDiagram.svg"
   inkscape:export-filename="/home/doug/dev/freshare/basicProposalDiagram.svg.png"
   inkscape:export-xdpi="62.839825"
   inkscape:export-ydpi="62.839825">
  <defs
     id="defs2">
    <marker
       inkscape:isstock="true"
       style="overflow:visible"
       id="marker7021"
       refX="0"
       refY="0"
       orient="auto"
       inkscape:stockid="Arrow2Mend">
      <path
         inkscape:connector-curvature="0"
         transform="scale(-0.6)"
         d="M 8.7185878,4.0337352 -2.2072895,0.01601326 8.7185884,-4.0017078 c -1.7454984,2.3720609 -1.7354408,5.6174519 -6e-7,8.035443 z"
         style="fill:#000000;fill-opacity:1;fill-rule:evenodd;stroke:#000000;stroke-width:0.625;stroke-linejoin:round;stroke-opacity:1"
         id="path7019" />
    </marker>
    <marker
       inkscape:stockid="Arrow2Mstart"
       orient="auto"
       refY="0"
       refX="0"
       id="Arrow2Mstart"
       style="overflow:visible"
       inkscape:isstock="true">
      <path
         id="path6511"
         style="fill:#000000;fill-opacity:1;fill-rule:evenodd;stroke:#000000;stroke-width:0.625;stroke-linejoin:round;stroke-opacity:1"
         d="M 8.7185878,4.0337352 -2.2072895,0.01601326 8.7185884,-4.0017078 c -1.7454984,2.3720609 -1.7354408,5.6174519 -6e-7,8.035443 z"
         transform="scale(0.6)"
         inkscape:connector-curvature="0" />
    </marker>
    <marker
       inkscape:stockid="Arrow2Lstart"
       orient="auto"
       refY="0"
       refX="0"
       id="Arrow2Lstart"
       style="overflow:visible"
       inkscape:isstock="true">
      <path
         id="path6505"
         style="fill:#000000;fill-opacity:1;fill-rule:evenodd;stroke:#000000;stroke-width:0.625;stroke-linejoin:round;stroke-opacity:1"
         d="M 8.7185878,4.0337352 -2.2072895,0.01601326 8.7185884,-4.0017078 c -1.7454984,2.3720609 -1.7354408,5.6174519 -6e-7,8.035443 z"
         transform="matrix(1.1,0,0,1.1,1.1,0)"
         inkscape:connector-curvature="0" />
    </marker>
    <marker
       inkscape:stockid="Arrow1Sstart"
       orient="auto"
       refY="0"
       refX="0"
       id="Arrow1Sstart"
       style="overflow:visible"
       inkscape:isstock="true">
      <path
         id="path6499"
         d="M 0,0 5,-5 -12.5,0 5,5 Z"
         style="fill:#000000;fill-opacity:1;fill-rule:evenodd;stroke:#000000;stroke-width:1.00000003pt;stroke-opacity:1"
         transform="matrix(0.2,0,0,0.2,1.2,0)"
         inkscape:connector-curvature="0" />
    </marker>
    <marker
       inkscape:isstock="true"
       style="overflow:visible"
       id="marker4261"
       refX="0"
       refY="0"
       orient="auto"
       inkscape:stockid="Arrow1Mstart">
      <path
         transform="matrix(0.4,0,0,0.4,4,0)"
         style="fill:#000000;fill-opacity:1;fill-rule:evenodd;stroke:#000000;stroke-width:1.00000003pt;stroke-opacity:1"
         d="M 0,0 5,-5 -12.5,0 5,5 Z"
         id="path4259"
         inkscape:connector-curvature="0" />
    </marker>
    <marker
       inkscape:stockid="Arrow2Mend"
       orient="auto"
       refY="0"
       refX="0"
       id="Arrow2Mend"
       style="overflow:visible"
       inkscape:isstock="true"
       inkscape:collect="always">
      <path
         id="path1011"
         style="fill:#000000;fill-opacity:1;fill-rule:evenodd;stroke:#000000;stroke-width:0.625;stroke-linejoin:round;stroke-opacity:1"
         d="M 8.7185878,4.0337352 -2.2072895,0.01601326 8.7185884,-4.0017078 c -1.7454984,2.3720609 -1.7354408,5.6174519 -6e-7,8.035443 z"
         transform="scale(-0.6)"
         inkscape:connector-curvature="0" />
    </marker>
    <marker
       inkscape:isstock="true"
       style="overflow:visible"
       id="marker2752"
       refX="0"
       refY="0"
       orient="auto"
       inkscape:stockid="Arrow1Mend">
      <path
         transform="matrix(-0.4,0,0,-0.4,-4,0)"
         style="fill:#000000;fill-opacity:1;fill-rule:evenodd;stroke:#000000;stroke-width:1.00000003pt;stroke-opacity:1"
         d="M 0,0 5,-5 -12.5,0 5,5 Z"
         id="path2750"
         inkscape:connector-curvature="0" />
    </marker>
    <marker
       inkscape:stockid="Arrow1Mstart"
       orient="auto"
       refY="0"
       refX="0"
       id="Arrow1Mstart-7"
       style="overflow:visible"
       inkscape:isstock="true"
       inkscape:collect="always">
      <path
         id="path990-0"
         d="M 0,0 5,-5 -12.5,0 5,5 Z"
         style="fill:#000000;fill-opacity:1;fill-rule:evenodd;stroke:#000000;stroke-width:1.00000003pt;stroke-opacity:1"
         transform="matrix(0.4,0,0,0.4,4,0)"
         inkscape:connector-curvature="0" />
    </marker>
    <marker
       inkscape:stockid="Arrow2Mend"
       orient="auto"
       refY="0"
       refX="0"
       id="Arrow2Mend-9"
       style="overflow:visible"
       inkscape:isstock="true">
      <path
         id="path1011-3"
         style="fill:#000000;fill-opacity:1;fill-rule:evenodd;stroke:#000000;stroke-width:0.625;stroke-linejoin:round;stroke-opacity:1"
         d="M 8.7185878,4.0337352 -2.2072895,0.01601326 8.7185884,-4.0017078 c -1.7454984,2.3720609 -1.7354408,5.6174519 -6e-7,8.035443 z"
         transform="scale(-0.6)"
         inkscape:connector-curvature="0" />
    </marker>
  </defs>
  <sodipodi:namedview
     id="base"
     pagecolor="#ffffff"
     bordercolor="#666666"
     borderopacity="1.0"
     inkscape:pageopacity="0.0"
     inkscape:pageshadow="2"
     inkscape:zoom="0.175"
     inkscape:cx="295.62057"
     inkscape:cy="461.88638"
     inkscape:document-units="mm"
     inkscape:current-layer="layer1"
     showgrid="false"
     inkscape:snap-bbox="false"
     inkscape:object-nodes="true"
     inkscape:bbox-paths="true"
     inkscape:bbox-nodes="true"
     inkscape:snap-bbox-edge-midpoints="true"
     inkscape:window-width="1366"
     inkscape:window-height="736"
     inkscape:window-x="0"
     inkscape:window-y="32"
     inkscape:window-maximized="1"
     inkscape:snap-midpoints="true"
     inkscape:snap-nodes="false"
     fit-margin-top="10"
     fit-margin-left="10"
     fit-margin-right="10"
     fit-margin-bottom="10" />
  <metadata
     id="metadata5">
    <rdf:RDF>
      <cc:Work
         rdf:about="">
        <dc:format>image/svg+xml</dc:format>
        <dc:type
           rdf:resource="http://purl.org/dc/dcmitype/StillImage" />
        <dc:title></dc:title>
      </cc:Work>
    </rdf:RDF>
  </metadata>
  <g
     inkscape:label="Layer 1"
     inkscape:groupmode="layer"
     id="layer1"
     transform="translate(96.519098,-2.039588)">
    <g
       id="g954"
       transform="translate(24.56571,14.967094)"
       style="stroke-width:2;stroke-miterlimit:4;stroke-dasharray:none">
      <path
         sodipodi:nodetypes="cccccc"
         inkscape:connector-curvature="0"
         id="rect817"
         d="m 56.70174,225.47067 24.0767,-14.11986 23.3884,14.11986 v 35.16023 h -47.4651 z"
         style="opacity:0.98000004;fill:none;fill-opacity:1;fill-rule:evenodd;stroke:#000000;stroke-width:2;stroke-linejoin:round;stroke-miterlimit:4;stroke-dasharray:none;stroke-opacity:1;paint-order:fill markers stroke" />
      <text
         id="text858"
         y="244.03171"
         x="80.444626"
         style="font-style:normal;font-variant:normal;font-weight:300;font-stretch:normal;font-size:10.58333302px;line-height:10.00000015%;font-family:'URW Bookman';-inkscape-font-specification:'URW Bookman, Light';font-variant-ligatures:normal;font-variant-caps:normal;font-variant-numeric:normal;font-feature-settings:normal;text-align:center;letter-spacing:0px;word-spacing:0px;writing-mode:lr-tb;text-anchor:middle;fill:#000000;fill-opacity:1;stroke:none;stroke-width:2;stroke-linecap:butt;stroke-linejoin:miter;stroke-miterlimit:4;stroke-dasharray:none;stroke-opacity:1"
         xml:space="preserve"><tspan
           style="font-style:normal;font-variant:normal;font-weight:normal;font-stretch:normal;font-family:sans-serif;-inkscape-font-specification:sans-serif;stroke-width:2;stroke-miterlimit:4;stroke-dasharray:none"
           y="244.03171"
           x="80.444626"
           id="tspan856"
           sodipodi:role="line">house1</tspan></text>
    </g>
    <text
       xml:space="preserve"
       style="font-style:normal;font-variant:normal;font-weight:300;font-stretch:normal;font-size:10.58333302px;line-height:10.00000015%;font-family:'URW Bookman';-inkscape-font-specification:'URW Bookman, Light';font-variant-ligatures:normal;font-variant-caps:normal;font-variant-numeric:normal;font-feature-settings:normal;text-align:center;letter-spacing:0px;word-spacing:0px;writing-mode:lr-tb;text-anchor:middle;fill:#000000;fill-opacity:1;stroke:none;stroke-width:0.26458332px;stroke-linecap:butt;stroke-linejoin:miter;stroke-opacity:1"
       x="68.955536"
       y="48.439339"
       id="text915"><tspan
         sodipodi:role="line"
         id="tspan913"
         x="68.955536"
         y="51.847172"
         style="stroke-width:0.26458332px" /></text>
    <g
       id="g975"
       transform="translate(3.9452591,-1.6148885e-5)"
       style="stroke-width:2;stroke-miterlimit:4;stroke-dasharray:none">
      <g
         id="g980"
         style="stroke-width:2;stroke-miterlimit:4;stroke-dasharray:none">
        <ellipse
           style="opacity:0.98000004;fill:none;fill-opacity:1;fill-rule:evenodd;stroke:#000000;stroke-width:2;stroke-linejoin:round;stroke-miterlimit:4;stroke-dasharray:none;stroke-opacity:1;paint-order:fill markers stroke"
           id="path911"
           cx="101.05474"
           cy="37.143757"
           rx="50.85323"
           ry="24.104153" />
        <text
           xml:space="preserve"
           style="font-style:normal;font-variant:normal;font-weight:300;font-stretch:normal;font-size:10.58333302px;line-height:10.00000015%;font-family:'URW Bookman';-inkscape-font-specification:'URW Bookman, Light';font-variant-ligatures:normal;font-variant-caps:normal;font-variant-numeric:normal;font-feature-settings:normal;text-align:center;letter-spacing:0px;word-spacing:0px;writing-mode:lr-tb;text-anchor:middle;fill:#000000;fill-opacity:1;stroke:none;stroke-width:2;stroke-linecap:butt;stroke-linejoin:miter;stroke-miterlimit:4;stroke-dasharray:none;stroke-opacity:1"
           x="101.21752"
           y="39.900696"
           id="text858-6-6"><tspan
             sodipodi:role="line"
             id="tspan856-7-2"
             x="101.21752"
             y="39.900696"
             style="font-style:normal;font-variant:normal;font-weight:normal;font-stretch:normal;font-family:sans-serif;-inkscape-font-specification:sans-serif;stroke-width:2;stroke-miterlimit:4;stroke-dasharray:none">aggregator1.org</tspan></text>
      </g>
    </g>
    <g
       id="g970"
       transform="translate(0.40815158,-5.4405109)">
      <rect
         y="121.56531"
         x="39.022446"
         height="69.334465"
         width="131.13881"
         id="rect854"
         style="opacity:0.98000004;fill:none;fill-opacity:1;fill-rule:evenodd;stroke:#000000;stroke-width:2;stroke-linejoin:round;stroke-miterlimit:4;stroke-dasharray:none;stroke-opacity:1;paint-order:fill markers stroke" />
      <text
         id="text858-6"
         y="115.00458"
         x="67.52417"
         style="font-style:normal;font-variant:normal;font-weight:300;font-stretch:normal;font-size:10.58333302px;line-height:10.00000015%;font-family:'URW Bookman';-inkscape-font-specification:'URW Bookman, Light';font-variant-ligatures:normal;font-variant-caps:normal;font-variant-numeric:normal;font-feature-settings:normal;text-align:center;letter-spacing:0px;word-spacing:0px;writing-mode:lr-tb;text-anchor:middle;fill:#000000;fill-opacity:1;stroke:none;stroke-width:0.26458332px;stroke-linecap:butt;stroke-linejoin:miter;stroke-opacity:1"
         xml:space="preserve"><tspan
           style="font-style:normal;font-variant:normal;font-weight:normal;font-stretch:normal;font-family:sans-serif;-inkscape-font-specification:sans-serif;stroke-width:0.26458332px"
           y="115.00458"
           x="67.52417"
           id="tspan856-7"
           sodipodi:role="line">house1.site</tspan></text>
      <rect
         y="141.97827"
         x="54.243347"
         height="39.847786"
         width="100.69701"
         id="rect854-5"
         style="opacity:0.98000004;fill:none;fill-opacity:1;fill-rule:evenodd;stroke:#000000;stroke-width:2;stroke-linejoin:round;stroke-miterlimit:4;stroke-dasharray:none;stroke-opacity:1;paint-order:fill markers stroke" />
      <text
         id="text858-6-3"
         y="135.85832"
         x="84.381683"
         style="font-style:normal;font-variant:normal;font-weight:300;font-stretch:normal;font-size:10.58333302px;line-height:10.00000015%;font-family:'URW Bookman';-inkscape-font-specification:'URW Bookman, Light';font-variant-ligatures:normal;font-variant-caps:normal;font-variant-numeric:normal;font-feature-settings:normal;text-align:center;letter-spacing:0px;word-spacing:0px;writing-mode:lr-tb;text-anchor:middle;fill:#000000;fill-opacity:1;stroke:none;stroke-width:0.26458332px;stroke-linecap:butt;stroke-linejoin:miter;stroke-opacity:1"
         xml:space="preserve"><tspan
           style="font-style:normal;font-variant:normal;font-weight:normal;font-stretch:normal;font-family:sans-serif;-inkscape-font-specification:sans-serif;stroke-width:0.26458332px"
           y="135.85832"
           x="84.381683"
           id="tspan856-7-5"
           sodipodi:role="line">house1.json</tspan></text>
      <text
         id="text937"
         y="149.3615"
         x="60.291714"
         style="font-style:normal;font-variant:normal;font-weight:300;font-stretch:normal;font-size:10.58333302px;line-height:10.00000015%;font-family:'URW Bookman';-inkscape-font-specification:'URW Bookman, Light';font-variant-ligatures:normal;font-variant-caps:normal;font-variant-numeric:normal;font-feature-settings:normal;text-align:center;letter-spacing:0px;word-spacing:0px;writing-mode:lr-tb;text-anchor:middle;fill:#000000;fill-opacity:1;stroke:none;stroke-width:0.26458332px;stroke-linecap:butt;stroke-linejoin:miter;stroke-opacity:1"
         xml:space="preserve"><tspan
           style="font-style:normal;font-variant:normal;font-weight:normal;font-stretch:normal;font-size:4.23333311px;line-height:100%;font-family:mono;-inkscape-font-specification:mono;text-align:start;text-anchor:start;stroke-width:0.26458332px"
           y="149.3615"
           x="60.291714"
           id="tspan935"
           sodipodi:role="line">{</tspan><tspan
           id="tspan945"
           style="font-style:normal;font-variant:normal;font-weight:normal;font-stretch:normal;font-size:4.23333311px;line-height:100%;font-family:mono;-inkscape-font-specification:mono;text-align:start;text-anchor:start;stroke-width:0.26458332px"
           y="153.78632"
           x="60.291714"
           sodipodi:role="line">&quot;@context&quot;: &quot;example-context.json&quot;,</tspan><tspan
           id="tspan949"
           style="font-style:normal;font-variant:normal;font-weight:normal;font-stretch:normal;font-size:4.23333311px;line-height:100%;font-family:mono;-inkscape-font-specification:mono;text-align:start;text-anchor:start;stroke-width:0.26458332px"
           y="158.21115"
           x="60.291714"
           sodipodi:role="line">&quot;houseName&quot;: &quot;House1&quot;,</tspan><tspan
           id="tspan947"
           style="font-style:normal;font-variant:normal;font-weight:normal;font-stretch:normal;font-size:4.23333311px;line-height:100%;font-family:mono;-inkscape-font-specification:mono;text-align:start;text-anchor:start;stroke-width:0.26458332px"
           y="162.63597"
           x="60.291714"
           sodipodi:role="line">&quot;knows&quot;: &quot;House2&quot;,</tspan><tspan
           style="font-style:normal;font-variant:normal;font-weight:normal;font-stretch:normal;font-size:4.23333311px;line-height:100%;font-family:mono;-inkscape-font-specification:mono;text-align:start;text-anchor:start;stroke-width:0.26458332px"
           y="167.06079"
           x="60.291714"
           sodipodi:role="line"
           id="tspan2973">&quot;email&quot;: &quot;house1data@blah.org&quot;,</tspan><tspan
           id="tspan939"
           style="font-style:normal;font-variant:normal;font-weight:bold;font-stretch:normal;font-size:4.23333311px;line-height:100%;font-family:mono;-inkscape-font-specification:mono;text-align:start;text-anchor:start;stroke-width:0.26458332px"
           y="171.48563"
           x="60.291714"
           sodipodi:role="line">&quot;lastUpdated&quot;: &quot;yyyy-mm-dd&quot;</tspan><tspan
           id="tspan943"
           style="font-style:normal;font-variant:normal;font-weight:normal;font-stretch:normal;font-size:4.23333311px;line-height:100%;font-family:mono;-inkscape-font-specification:mono;text-align:start;text-anchor:start;stroke-width:0.26458332px"
           y="175.91045"
           x="60.291714"
           sodipodi:role="line" /><tspan
           id="tspan941"
           style="font-style:normal;font-variant:normal;font-weight:normal;font-stretch:normal;font-size:4.23333311px;line-height:100%;font-family:mono;-inkscape-font-specification:mono;text-align:start;text-anchor:start;stroke-width:0.26458332px"
           y="176.96878"
           x="60.291714"
           sodipodi:role="line">}</tspan></text>
    </g>
    <path
       style="fill:none;fill-rule:evenodd;stroke:#000000;stroke-width:2;stroke-linecap:butt;stroke-linejoin:miter;stroke-miterlimit:4;stroke-dasharray:none;stroke-opacity:1;marker-end:url(#marker7021)"
       d="m 76.439084,245.1497 c 0,0 -16.225775,-13.03102 -18.708867,-22.45063 -3.539267,-13.4262 7.426563,-40.9872 7.426563,-40.9872"
       id="path2700"
       inkscape:connector-curvature="0"
       sodipodi:nodetypes="cac" />
    <path
       style="fill:none;fill-rule:evenodd;stroke:#000000;stroke-width:2;stroke-linecap:butt;stroke-linejoin:miter;stroke-miterlimit:4;stroke-dasharray:none;stroke-opacity:1;marker-start:url(#Arrow2Mstart);marker-end:url(#Arrow2Mend)"
       d="m 55.757468,57.363094 c 0,0 -20.803264,13.739021 -25.632827,24.535741 -6.33597,14.164362 -6.413379,31.778395 -1.581459,46.523775 3.296558,10.05998 19.654762,24.94643 19.654762,24.94643"
       id="path2742"
       inkscape:connector-curvature="0"
       sodipodi:nodetypes="caac" />
    <path
       style="fill:none;fill-rule:evenodd;stroke:#000000;stroke-width:2;stroke-linecap:butt;stroke-linejoin:miter;stroke-miterlimit:4;stroke-dasharray:none;stroke-opacity:1;marker-end:url(#marker2752)"
       d="m 149.58885,55.825805 c 0,0 47.78217,77.947585 40.35446,122.531575 -5.44984,32.71202 -55.49706,74.9064 -55.49706,74.9064"
       id="path4251"
       inkscape:connector-curvature="0"
       sodipodi:nodetypes="csc" />
    <g
       id="g975-3"
       transform="translate(146.83947,14.179793)">
      <g
         id="g980-6">
        <g
           id="g975-5"
           transform="matrix(0.25135398,0,0,0.33086289,63.087948,3.1103188)">
          <g
             id="g980-62">
            <ellipse
               style="opacity:0.98000004;fill:none;fill-opacity:1;fill-rule:evenodd;stroke:#000000;stroke-width:1.17888343;stroke-linejoin:round;stroke-miterlimit:4;stroke-dasharray:none;stroke-opacity:1;paint-order:fill markers stroke"
               id="path911-9"
               cx="101.05474"
               cy="37.143757"
               rx="50.85323"
               ry="24.104153" />
            <text
               xml:space="preserve"
               style="font-style:normal;font-variant:normal;font-weight:300;font-stretch:normal;font-size:10.58333302px;line-height:10.00000015%;font-family:'URW Bookman';-inkscape-font-specification:'URW Bookman, Light';font-variant-ligatures:normal;font-variant-caps:normal;font-variant-numeric:normal;font-feature-settings:normal;text-align:center;letter-spacing:0px;word-spacing:0px;writing-mode:lr-tb;text-anchor:middle;fill:#000000;fill-opacity:1;stroke:none;stroke-width:0.26458332px;stroke-linecap:butt;stroke-linejoin:miter;stroke-opacity:1"
               x="101.21752"
               y="39.900696"
               id="text858-6-6-1"><tspan
                 sodipodi:role="line"
                 id="tspan856-7-2-2"
                 x="101.21752"
                 y="39.900696"
                 style="font-style:normal;font-variant:normal;font-weight:normal;font-stretch:normal;font-family:sans-serif;-inkscape-font-specification:sans-serif;stroke-width:0.26458332px">aggregator3.org</tspan></text>
          </g>
        </g>
        <ellipse
           style="opacity:0.98000004;fill:#fdffff;fill-opacity:1;fill-rule:evenodd;stroke:#000000;stroke-width:0.45817754;stroke-linejoin:round;stroke-miterlimit:4;stroke-dasharray:none;stroke-opacity:1;paint-order:fill markers stroke"
           id="path911-7"
           cx="68.170815"
           cy="22.780661"
           rx="18.329653"
           ry="10.10141" />
        <text
           xml:space="preserve"
           style="font-style:normal;font-variant:normal;font-weight:300;font-stretch:normal;font-size:4.11325264px;line-height:10.00000015%;font-family:'URW Bookman';-inkscape-font-specification:'URW Bookman, Light';font-variant-ligatures:normal;font-variant-caps:normal;font-variant-numeric:normal;font-feature-settings:normal;text-align:center;letter-spacing:0px;word-spacing:0px;writing-mode:lr-tb;text-anchor:middle;fill:#000000;fill-opacity:1;stroke:none;stroke-width:0.10283131px;stroke-linecap:butt;stroke-linejoin:miter;stroke-opacity:1"
           x="73.569756"
           y="22.198557"
           id="text858-6-6-5"
           transform="scale(0.92741217,1.0782692)"><tspan
             sodipodi:role="line"
             id="tspan856-7-2-3"
             x="73.569756"
             y="22.198557"
             style="font-style:normal;font-variant:normal;font-weight:normal;font-stretch:normal;font-family:sans-serif;-inkscape-font-specification:sans-serif;stroke-width:0.10283131px">aggregator2.org</tspan></text>
      </g>
    </g>
    <path
       style="fill:none;fill-rule:evenodd;stroke:#000000;stroke-width:1.32299995;stroke-linecap:butt;stroke-linejoin:miter;stroke-miterlimit:4;stroke-dasharray:1.32299993, 1.32299993;stroke-dashoffset:0;stroke-opacity:1;marker-start:url(#Arrow1Mstart-7);marker-end:url(#Arrow2Mend-9)"
       d="m 186.74681,43.844057 c 0,0 -15.43531,3.490497 -20.58897,8.908906 -18.15287,19.085402 -27.71083,74.000837 -27.71083,74.000837"
       id="path2742-6"
       inkscape:connector-curvature="0"
       sodipodi:nodetypes="cac" />
    <flowRoot
       xml:space="preserve"
       id="flowRoot4449"
       style="font-style:normal;font-variant:normal;font-weight:300;font-stretch:normal;font-size:40px;line-height:10.00000015%;font-family:'URW Bookman';-inkscape-font-specification:'URW Bookman, Light';font-variant-ligatures:normal;font-variant-caps:normal;font-variant-numeric:normal;font-feature-settings:normal;text-align:center;letter-spacing:0px;word-spacing:0px;writing-mode:lr-tb;text-anchor:middle;fill:#000000;fill-opacity:1;stroke:none;stroke-width:1px;stroke-linecap:butt;stroke-linejoin:miter;stroke-opacity:1"
       transform="matrix(0.26458333,0,0,0.26458333,-120.0804,2.4501463)"><flowRegion
         id="flowRegion4451"><rect
           id="rect4453"
           width="338.57144"
           height="200"
           x="1192.8572"
           y="844.65894" /></flowRegion><flowPara
         id="flowPara4455" /></flowRoot>    <text
       xml:space="preserve"
       style="font-style:normal;font-variant:normal;font-weight:300;font-stretch:normal;font-size:10.58333302px;line-height:10.00000015%;font-family:'URW Bookman';-inkscape-font-specification:'URW Bookman, Light';font-variant-ligatures:normal;font-variant-caps:normal;font-variant-numeric:normal;font-feature-settings:normal;text-align:center;letter-spacing:0px;word-spacing:0px;writing-mode:lr-tb;text-anchor:middle;fill:#000000;fill-opacity:1;stroke:none;stroke-width:0.26458332px;stroke-linecap:butt;stroke-linejoin:miter;stroke-opacity:1"
       x="-18.582617"
       y="216.37714"
       id="text983"><tspan
         sodipodi:role="line"
         id="tspan981"
         x="-18.582617"
         y="216.37714"
         style="font-weight:bold;line-height:110.00000238%;stroke-width:0.26458332px">1. House adds structured</tspan><tspan
         sodipodi:role="line"
         x="-18.582617"
         y="228.0188"
         style="font-weight:bold;line-height:110.00000238%;stroke-width:0.26458332px"
         id="tspan985">data about itself onto its</tspan><tspan
         sodipodi:role="line"
         x="-18.582617"
         y="239.66048"
         style="font-weight:bold;line-height:110.00000238%;stroke-width:0.26458332px"
         id="tspan987">website</tspan><tspan
         sodipodi:role="line"
         x="-18.582617"
         y="251.14339"
         style="line-height:110.00000238%;stroke-width:0.26458332px"
         id="tspan989">(This probably requires</tspan><tspan
         sodipodi:role="line"
         x="-18.582617"
         y="262.78506"
         style="line-height:110.00000238%;stroke-width:0.26458332px"
         id="tspan991">SSG/CMS plugins/scripts</tspan><tspan
         sodipodi:role="line"
         x="-18.582617"
         y="274.42673"
         style="line-height:110.00000238%;stroke-width:0.26458332px"
         id="tspan993">for viable UX)</tspan></text>
    <text
       xml:space="preserve"
       style="font-style:normal;font-variant:normal;font-weight:300;font-stretch:normal;font-size:10.58333302px;line-height:10.00000015%;font-family:'URW Bookman';-inkscape-font-specification:'URW Bookman, Light';font-variant-ligatures:normal;font-variant-caps:normal;font-variant-numeric:normal;font-feature-settings:normal;text-align:center;letter-spacing:0px;word-spacing:0px;writing-mode:lr-tb;text-anchor:middle;fill:#000000;fill-opacity:1;stroke:none;stroke-width:0.26458332px;stroke-linecap:butt;stroke-linejoin:miter;stroke-opacity:1"
       x="-27.712322"
       y="65.302353"
       id="text983-3"><tspan
         sodipodi:role="line"
         id="tspan981-6"
         x="-27.712322"
         y="65.302353"
         style="font-weight:bold;line-height:110.00000238%;stroke-width:0.26458332px">2. Aggregator</tspan><tspan
         sodipodi:role="line"
         x="-27.71232"
         y="76.944023"
         style="font-weight:bold;line-height:110.00000238%;stroke-width:0.26458332px"
         id="tspan1028">periodically scrapes</tspan><tspan
         sodipodi:role="line"
         x="-27.712322"
         y="88.585686"
         style="font-weight:bold;line-height:110.00000238%;stroke-width:0.26458332px"
         id="tspan1030">houses data</tspan><tspan
         sodipodi:role="line"
         x="-27.712324"
         y="100.0686"
         style="font-weight:normal;line-height:110.00000238%;stroke-width:0.26458332px"
         id="tspan1034">(possibly crawls</tspan><tspan
         sodipodi:role="line"
         x="-27.71232"
         y="111.71027"
         style="font-weight:normal;line-height:110.00000238%;stroke-width:0.26458332px"
         id="tspan993-6">along 'knowns')</tspan></text>
    <text
       xml:space="preserve"
       style="font-style:normal;font-variant:normal;font-weight:300;font-stretch:normal;font-size:10.58333302px;line-height:10.00000015%;font-family:'URW Bookman';-inkscape-font-specification:'URW Bookman, Light';font-variant-ligatures:normal;font-variant-caps:normal;font-variant-numeric:normal;font-feature-settings:normal;text-align:center;letter-spacing:0px;word-spacing:0px;writing-mode:lr-tb;text-anchor:middle;fill:#000000;fill-opacity:1;stroke:none;stroke-width:0.26458332px;stroke-linecap:butt;stroke-linejoin:miter;stroke-opacity:1"
       x="231.00459"
       y="61.560577"
       id="text983-2"><tspan
         sodipodi:role="line"
         id="tspan981-9"
         x="231.00459"
         y="61.560577"
         style="font-style:italic;font-weight:normal;line-height:110.00000238%;stroke-width:0.26458332px">(Structured data</tspan><tspan
         sodipodi:role="line"
         x="231.00459"
         y="73.202248"
         style="font-style:italic;font-weight:normal;line-height:110.00000238%;stroke-width:0.26458332px"
         id="tspan1084">easily scrapable</tspan><tspan
         sodipodi:role="line"
         x="231.00459"
         y="84.84391"
         style="font-style:italic;font-weight:normal;line-height:110.00000238%;stroke-width:0.26458332px"
         id="tspan1086">by other</tspan><tspan
         sodipodi:role="line"
         x="231.00459"
         y="96.48558"
         style="font-style:italic;font-weight:normal;line-height:110.00000238%;stroke-width:0.26458332px"
         id="tspan993-9">aggregators)</tspan></text>
    <text
       xml:space="preserve"
       style="font-style:normal;font-variant:normal;font-weight:300;font-stretch:normal;font-size:10.58333302px;line-height:10.00000015%;font-family:'URW Bookman';-inkscape-font-specification:'URW Bookman, Light';font-variant-ligatures:normal;font-variant-caps:normal;font-variant-numeric:normal;font-feature-settings:normal;text-align:center;letter-spacing:0px;word-spacing:0px;writing-mode:lr-tb;text-anchor:middle;fill:#000000;fill-opacity:1;stroke:none;stroke-width:0.26458332px;stroke-linecap:butt;stroke-linejoin:miter;stroke-opacity:1"
       x="241.69539"
       y="201.07529"
       id="text983-36"><tspan
         sodipodi:role="line"
         id="tspan981-0"
         x="243.49373"
         y="201.07529"
         style="font-weight:bold;line-height:110.00000238%;stroke-width:0.26458332px">3. If 'lastUpdated' </tspan><tspan
         sodipodi:role="line"
         x="241.69539"
         y="212.71695"
         style="font-weight:bold;line-height:110.00000238%;stroke-width:0.26458332px"
         id="tspan1145">is too distant,</tspan><tspan
         sodipodi:role="line"
         x="241.69539"
         y="224.35863"
         style="font-weight:bold;line-height:110.00000238%;stroke-width:0.26458332px"
         id="tspan1147">aggregator reminds</tspan><tspan
         sodipodi:role="line"
         x="241.69539"
         y="236.00029"
         style="font-weight:bold;line-height:110.00000238%;stroke-width:0.26458332px"
         id="tspan1149">house to update.</tspan><tspan
         sodipodi:role="line"
         x="243.39038"
         y="247.4832"
         style="font-weight:normal;line-height:110.00000238%;stroke-width:0.26458332px"
         id="tspan1157">(If 'lastUpdated' really </tspan><tspan
         sodipodi:role="line"
         x="241.69539"
         y="259.12488"
         style="font-weight:normal;line-height:110.00000238%;stroke-width:0.26458332px"
         id="tspan1159">distant, house is</tspan><tspan
         sodipodi:role="line"
         x="241.69539"
         y="270.76654"
         style="font-weight:normal;line-height:110.00000238%;stroke-width:0.26458332px"
         id="tspan993-8">B/de-listed)</tspan></text>
  </g>
</svg>
